<svg id="arrow_down" data-name="arrow down" xmlns="http://www.w3.org/2000/svg" width="33.419" height="33.419" viewBox="0 0 33.419 33.419">
  <circle id="Ellipse_6" data-name="Ellipse 6" cx="16.709" cy="16.709" r="16.709" transform="translate(0 0)" fill="#fff"/>
  <path id="Path_369" data-name="Path 369" d="M15.005,8.8l-4.132,5.57L7.1,8.8" transform="translate(5.657 7.011)" fill="none" stroke="#2b8bfa" stroke-miterlimit="10" stroke-width="2.5"/>
</svg>
