<svg xmlns="http://www.w3.org/2000/svg" xmlns:xlink="http://www.w3.org/1999/xlink" width="53.404" height="45.654" viewBox="0 0 53.404 45.654">
  <defs>
    <clipPath id="clip-path">
      <rect id="Rectangle_1141" data-name="Rectangle 1141" width="45.92" height="34.96" fill="#fff"/>
    </clipPath>
  </defs>
  <g id="mail_icon" data-name="mail icon" transform="matrix(0.966, 0.259, -0.259, 0.966, -102.678, -502.593)">
    <path id="Path_2493" data-name="Path 2493" d="M267.028,483.423H240.777a1.263,1.263,0,0,1-1.262-1.262V459.328a1.263,1.263,0,0,1,1.262-1.262H274.6a1.263,1.263,0,0,1,1.262,1.262v15.26a.757.757,0,1,0,1.514,0v-15.26a2.78,2.78,0,0,0-2.777-2.777H240.777A2.78,2.78,0,0,0,238,459.328v22.833a2.78,2.78,0,0,0,2.777,2.777h26.252a.757.757,0,1,0,0-1.515Zm0,0" fill="#fff"/>
    <g id="Group_352" data-name="Group 352" transform="translate(238 456.551)">
      <g id="Group_351" data-name="Group 351" transform="translate(0 0)" clip-path="url(#clip-path)">
        <path id="Path_2494" data-name="Path 2494" d="M295.084,480.76a.757.757,0,0,0-1.071.026L279.5,496.011a1.155,1.155,0,0,1-1.69,0L263.3,480.785a.757.757,0,0,0-1.1,1.045l9.4,9.862-9.4,9.908a.757.757,0,1,0,1.1,1.042l9.346-9.853,4.065,4.266a2.669,2.669,0,0,0,3.883,0l4.065-4.266,5.7,6a.757.757,0,1,0,1.1-1.042l-5.749-6.061,9.4-9.862a.757.757,0,0,0-.025-1.07Zm0,0" transform="translate(-258.97 -477.522)" fill="#fff"/>
        <path id="Path_2495" data-name="Path 2495" d="M493.32,617.465a7.32,7.32,0,1,0,7.32,7.32,7.329,7.329,0,0,0-7.32-7.32Zm0,13.126a5.806,5.806,0,1,1,5.806-5.806,5.812,5.812,0,0,1-5.806,5.806Zm0,0" transform="translate(-454.7 -597.156)" fill="#fff"/>
      </g>
    </g>
    <path id="Path_2496" data-name="Path 2496" d="M532.057,649.523a.757.757,0,0,0-.825.164l-1.01,1.01a.757.757,0,0,0,.788,1.25v3.324a.757.757,0,0,0,1.515,0v-5.048a.757.757,0,0,0-.467-.7Zm0,0" transform="translate(-255.147 -168.566)" fill="#fff"/>
  </g>
</svg>
